Lab 4 Homework
…
fisheries <- readr::read_csv("data/FAO_1950to2012_111914.csv")

## Parsed with column specification:
## cols(
##   .default = col_character(),
##   `ISSCAAP group#` = col_double(),
##   `FAO major fishing area` = col_double()
## )

## See spec(...) for full column specifications.

fisheries

## # A tibble: 17,692 x 71
##    Country `Common name` `ISSCAAP group#` `ISSCAAP taxono~ `ASFIS species#`
##    <chr>   <chr>                    <dbl> <chr>            <chr>           
##  1 Albania Angelsharks,~               38 Sharks, rays, c~ 10903XXXXX      
##  2 Albania Atlantic bon~               36 Tunas, bonitos,~ 1750100101      
##  3 Albania Barracudas n~               37 Miscellaneous p~ 17710001XX      
##  4 Albania Blue and red~               45 Shrimps, prawns  2280203101      
##  5 Albania Blue whiting~               32 Cods, hakes, ha~ 1480403301      
##  6 Albania Bluefish                    37 Miscellaneous p~ 1702021301      
##  7 Albania Bogue                       33 Miscellaneous c~ 1703926101      
##  8 Albania Caramote pra~               45 Shrimps, prawns  2280100117      
##  9 Albania Catsharks, n~               38 Sharks, rays, c~ 10801003XX      
## 10 Albania Common cuttl~               57 Squids, cuttlef~ 3210200202      
## # ... with 17,682 more rows, and 66 more variables: `ASFIS species name` <chr>,
## #   `FAO major fishing area` <dbl>, Measure <chr>, `1950` <chr>, `1951` <chr>,
## #   `1952` <chr>, `1953` <chr>, `1954` <chr>, `1955` <chr>, `1956` <chr>,
## #   `1957` <chr>, `1958` <chr>, `1959` <chr>, `1960` <chr>, `1961` <chr>,
## #   `1962` <chr>, `1963` <chr>, `1964` <chr>, `1965` <chr>, `1966` <chr>,
## #   `1967` <chr>, `1968` <chr>, `1969` <chr>, `1970` <chr>, `1971` <chr>,
## #   `1972` <chr>, `1973` <chr>, `1974` <chr>, `1975` <chr>, `1976` <chr>,
## #   `1977` <chr>, `1978` <chr>, `1979` <chr>, `1980` <chr>, `1981` <chr>,
## #   `1982` <chr>, `1983` <chr>, `1984` <chr>, `1985` <chr>, `1986` <chr>,
…
Think about the classes. Will any present problems? Make any changes you think are necessary below.

fisheries$Country <- as.factor(fisheries$Country)
fisheries

## # A tibble: 17,692 x 71
##    Country `Common name` `ISSCAAP group#` `ISSCAAP taxono~ `ASFIS species#`
##    <fct>   <chr>                    <dbl> <chr>            <chr>           
##  1 Albania Angelsharks,~               38 Sharks, rays, c~ 10903XXXXX      
##  2 Albania Atlantic bon~               36 Tunas, bonitos,~ 1750100101      
##  3 Albania Barracudas n~               37 Miscellaneous p~ 17710001XX      
##  4 Albania Blue and red~               45 Shrimps, prawns  2280203101      
##  5 Albania Blue whiting~               32 Cods, hakes, ha~ 1480403301      
##  6 Albania Bluefish                    37 Miscellaneous p~ 1702021301      
##  7 Albania Bogue                       33 Miscellaneous c~ 1703926101      
##  8 Albania Caramote pra~               45 Shrimps, prawns  2280100117      
##  9 Albania Catsharks, n~               38 Sharks, rays, c~ 10801003XX      
## 10 Albania Common cuttl~               57 Squids, cuttlef~ 3210200202      
## # ... with 17,682 more rows, and 66 more variables: `ASFIS species name` <chr>,
## #   `FAO major fishing area` <dbl>, Measure <chr>, `1950` <chr>, `1951` <chr>,
## #   `1952` <chr>, `1953` <chr>, `1954` <chr>, `1955` <chr>, `1956` <chr>,
## #   `1957` <chr>, `1958` <chr>, `1959` <chr>, `1960` <chr>, `1961` <chr>,
## #   `1962` <chr>, `1963` <chr>, `1964` <chr>, `1965` <chr>, `1966` <chr>,
## #   `1967` <chr>, `1968` <chr>, `1969` <chr>, `1970` <chr>, `1971` <chr>,
## #   `1972` <chr>, `1973` <chr>, `1974` <chr>, `1975` <chr>, `1976` <chr>,
## #   `1977` <chr>, `1978` <chr>, `1979` <chr>, `1980` <chr>, `1981` <chr>,
## #   `1982` <chr>, `1983` <chr>, `1984` <chr>, `1985` <chr>, `1986` <chr>,
…
fisheries %>% 
  summarize(country_count=n_distinct(Country))

## # A tibble: 1 x 1
##   country_count
##           <int>
## 1           204

What are the names of the countries?

fisheries %>% 
  count(Country) %>% 
  select(Country)

## # A tibble: 204 x 1
##    Country            
##    <fct>              
##  1 Albania            
##  2 Algeria            
##  3 American Samoa     
##  4 Angola             
##  5 Anguilla           
##  6 Antigua and Barbuda
##  7 Argentina          
##  8 Aruba              
##  9 Australia          
## 10 Bahamas            
## # ... with 194 more rows
…
unit

fisheries2 <- fisheries %>% 
  dplyr::rename(country = "Country",
                comname = "Common name",
                ASFIS_sciname = "ASFIS species name",
                ASFIS_spcode = "ASFIS species#",
                ISSCAAP_spgroup = "ISSCAAP group#",
                ISSCAAP_spgroupname = "ISSCAAP taxonomic group",
                FAO_area = "FAO major fishing area",
                unit = "Measure")
fisheries2

## # A tibble: 17,692 x 71
##    country comname ISSCAAP_spgroup ISSCAAP_spgroup~ ASFIS_spcode ASFIS_sciname
##    <fct>   <chr>             <dbl> <chr>            <chr>        <chr>        
##  1 Albania Angels~              38 Sharks, rays, c~ 10903XXXXX   Squatinidae  
##  2 Albania Atlant~              36 Tunas, bonitos,~ 1750100101   Sarda sarda  
##  3 Albania Barrac~              37 Miscellaneous p~ 17710001XX   Sphyraena spp
##  4 Albania Blue a~              45 Shrimps, prawns  2280203101   Aristeus ant~
##  5 Albania Blue w~              32 Cods, hakes, ha~ 1480403301   Micromesisti~
##  6 Albania Bluefi~              37 Miscellaneous p~ 1702021301   Pomatomus sa~
##  7 Albania Bogue                33 Miscellaneous c~ 1703926101   Boops boops  
##  8 Albania Caramo~              45 Shrimps, prawns  2280100117   Penaeus kera~
##  9 Albania Catsha~              38 Sharks, rays, c~ 10801003XX   Scyliorhinus~
## 10 Albania Common~              57 Squids, cuttlef~ 3210200202   Sepia offici~
## # ... with 17,682 more rows, and 65 more variables: FAO_area <dbl>, unit <chr>,
## #   `1950` <chr>, `1951` <chr>, `1952` <chr>, `1953` <chr>, `1954` <chr>,
## #   `1955` <chr>, `1956` <chr>, `1957` <chr>, `1958` <chr>, `1959` <chr>,
## #   `1960` <chr>, `1961` <chr>, `1962` <chr>, `1963` <chr>, `1964` <chr>,
## #   `1965` <chr>, `1966` <chr>, `1967` <chr>, `1968` <chr>, `1969` <chr>,
## #   `1970` <chr>, `1971` <chr>, `1972` <chr>, `1973` <chr>, `1974` <chr>,
## #   `1975` <chr>, `1976` <chr>, `1977` <chr>, `1978` <chr>, `1979` <chr>,
## #   `1980` <chr>, `1981` <chr>, `1982` <chr>, `1983` <chr>, `1984` <chr>,
## #   `1985` <chr>, `1986` <chr>, `1987` <chr>, `1988` <chr>, `1989` <chr>,
…
Are these data tidy? Why or why not, and, how do you know? Use the appropriate pivot function to tidy the data. Remove the NAs. Put the tidy data frame into a new object fisheries_tidy.

Data isnt tidy, the year is a column when it should be a variable

fisheries_tidy <- fisheries2 %>%  
  pivot_longer("1950":"2012",
              names_to = "year",
              values_to = "catch",
              values_drop_na = TRUE)
fisheries_tidy

## # A tibble: 376,771 x 10
##    country comname ISSCAAP_spgroup ISSCAAP_spgroup~ ASFIS_spcode ASFIS_sciname
##    <fct>   <chr>             <dbl> <chr>            <chr>        <chr>        
##  1 Albania Angels~              38 Sharks, rays, c~ 10903XXXXX   Squatinidae  
##  2 Albania Angels~              38 Sharks, rays, c~ 10903XXXXX   Squatinidae  
##  3 Albania Angels~              38 Sharks, rays, c~ 10903XXXXX   Squatinidae  
##  4 Albania Angels~              38 Sharks, rays, c~ 10903XXXXX   Squatinidae  
##  5 Albania Angels~              38 Sharks, rays, c~ 10903XXXXX   Squatinidae  
##  6 Albania Angels~              38 Sharks, rays, c~ 10903XXXXX   Squatinidae  
##  7 Albania Angels~              38 Sharks, rays, c~ 10903XXXXX   Squatinidae  
##  8 Albania Angels~              38 Sharks, rays, c~ 10903XXXXX   Squatinidae  
##  9 Albania Angels~              38 Sharks, rays, c~ 10903XXXXX   Squatinidae  
## 10 Albania Angels~              38 Sharks, rays, c~ 10903XXXXX   Squatinidae  
## # ... with 376,761 more rows, and 4 more variables: FAO_area <dbl>, unit <chr>,
## #   year <chr>, catch <chr>

Refocus the data only to include country, ISSCAAP_spgroupname, ASFIS_spcode, ASFIS_sciname, year, and catch.

fisheries_tidy2 <- fisheries_tidy %>% 
  select(-c(comname, ISSCAAP_spgroup, FAO_area, unit))
fisheries_tidy2

## # A tibble: 376,771 x 6
##    country ISSCAAP_spgroupname     ASFIS_spcode ASFIS_sciname year  catch
##    <fct>   <chr>                   <chr>        <chr>         <chr> <chr>
##  1 Albania Sharks, rays, chimaeras 10903XXXXX   Squatinidae   1995  0 0  
##  2 Albania Sharks, rays, chimaeras 10903XXXXX   Squatinidae   1996  53   
##  3 Albania Sharks, rays, chimaeras 10903XXXXX   Squatinidae   1997  20   
##  4 Albania Sharks, rays, chimaeras 10903XXXXX   Squatinidae   1998  31   
##  5 Albania Sharks, rays, chimaeras 10903XXXXX   Squatinidae   1999  30   
##  6 Albania Sharks, rays, chimaeras 10903XXXXX   Squatinidae   2000  30   
##  7 Albania Sharks, rays, chimaeras 10903XXXXX   Squatinidae   2001  16   
##  8 Albania Sharks, rays, chimaeras 10903XXXXX   Squatinidae   2002  79   
##  9 Albania Sharks, rays, chimaeras 10903XXXXX   Squatinidae   2003  1    
## 10 Albania Sharks, rays, chimaeras 10903XXXXX   Squatinidae   2004  4    
## # ... with 376,761 more rows
…
Given the top five countries from question 12 above, which species was the highest catch total? The lowest? Engraulis ringens was highest, multiple way tie for lowest

fisheries_tidy2 %>% 
  filter(country == c("Peru", "Japan", "United States of America", "Chile", "Indonesia")) %>% 
  group_by(ASFIS_sciname) %>% 
  summarize(species_tot = sum(catch, na.rm = TRUE)) %>% 
  arrange(species_tot)

## Warning in `==.default`(country, c("Peru", "Japan", "United States of
## America", : longer object length is not a multiple of shorter object length

## Warning in is.na(e1) | is.na(e2): longer object length is not a multiple of
## shorter object length

## # A tibble: 588 x 2
##    ASFIS_sciname            species_tot
##    <chr>                          <dbl>
##  1 Carcharhinus falciformis           0
##  2 Chaenocephalus aceratus            0
##  3 Chaenodraco wilsoni                0
##  4 Channichthyidae                    0
##  5 Galeocerdo cuvier                  0
##  6 Ginglymostoma cirratum             0
##  7 Negaprion brevirostris             0
##  8 Notothenia squamifrons             0
##  9 Nototheniidae                      0
## 10 Nototheniops nudifrons             0
## # ... with 578 more rows
…
