…
```r
life_history
```

```
## # A tibble: 1,440 x 13
##    order family Genus species   mass gestation newborn weaning `wean mass`
##    <chr> <chr>  <chr> <chr>    <dbl>     <dbl>   <dbl>   <dbl>       <dbl>
##  1 Arti~ Antil~ Anti~ americ~ 4.54e4      8.13   3246.    3           8900
##  2 Arti~ Bovid~ Addax nasoma~ 1.82e5      9.39   5480     6.5         -999
##  3 Arti~ Bovid~ Aepy~ melamp~ 4.15e4      6.35   5093     5.63       15900
##  4 Arti~ Bovid~ Alce~ busela~ 1.50e5      7.9   10167.    6.5         -999
##  5 Arti~ Bovid~ Ammo~ clarkei 2.85e4      6.8    -999  -999           -999
##  6 Arti~ Bovid~ Ammo~ lervia  5.55e4      5.08   3810     4           -999
##  7 Arti~ Bovid~ Anti~ marsup~ 3.00e4      5.72   3910     4.04        -999
##  8 Arti~ Bovid~ Anti~ cervic~ 3.75e4      5.5    3846     2.13        -999
##  9 Arti~ Bovid~ Bison bison   4.98e5      8.93  20000    10.7       157500
## 10 Arti~ Bovid~ Bison bonasus 5.00e5      9.14  23000.    6.6         -999
## # ... with 1,430 more rows, and 4 more variables: AFR <dbl>, `max. life` <dbl>,
## #   `litter size` <dbl>, `litters/year` <dbl>
```
…
It is true that all of this is redundant, but you want to be able to run multiple checks on the data. Remember, just because your code runs without errors doesn't mean it is doing what you intended.  

## Replacing NAs with `na_if()` and `mutate()`
The bit of code below is very handy, especially if the data has NAs represented as **actual values that you want replaced** or if you want to make sure any blanks are treated as NA. You can also use it to treat specific values as NA.  

Let's say we know that NA's are represented by "-999". We can replace this value with NA accross the data frame.

```r
msleep %>% 
  na_if("-999")
```

```
## # A tibble: 83 x 11
##    name  genus vore  order conservation sleep_total sleep_rem sleep_cycle awake
##    <chr> <chr> <chr> <chr> <chr>              <dbl>     <dbl>       <dbl> <dbl>
##  1 Chee~ Acin~ carni Carn~ lc                  12.1      NA        NA      11.9
##  2 Owl ~ Aotus omni  Prim~ <NA>                17         1.8      NA       7  
##  3 Moun~ Aplo~ herbi Rode~ nt                  14.4       2.4      NA       9.6
##  4 Grea~ Blar~ omni  Sori~ lc                  14.9       2.3       0.133   9.1
##  5 Cow   Bos   herbi Arti~ domesticated         4         0.7       0.667  20  
##  6 Thre~ Brad~ herbi Pilo~ <NA>                14.4       2.2       0.767   9.6
##  7 Nort~ Call~ carni Carn~ vu                   8.7       1.4       0.383  15.3
##  8 Vesp~ Calo~ <NA>  Rode~ <NA>                 7        NA        NA      17  
##  9 Dog   Canis carni Carn~ domesticated        10.1       2.9       0.333  13.9
## 10 Roe ~ Capr~ herbi Arti~ lc                   3        NA        NA      21  
## # ... with 73 more rows, and 2 more variables: brainwt <dbl>, bodywt <dbl>
```
…
We can also replace -999 with NA as before. This shows replacement within the newborn column.

```r
life_history %>% 
  naniar::replace_with_na(replace = list(newborn = -999))
```

```
## # A tibble: 1,440 x 13
##    order family genus species   mass gestation newborn weaning wean_mass    AFR
##    <chr> <chr>  <chr> <chr>    <dbl>     <dbl>   <dbl>   <dbl>     <dbl>  <dbl>
##  1 Arti~ Antil~ Anti~ americ~ 4.54e4      8.13   3246.    3         8900   13.5
##  2 Arti~ Bovid~ Addax nasoma~ 1.82e5      9.39   5480     6.5       -999   27.3
##  3 Arti~ Bovid~ Aepy~ melamp~ 4.15e4      6.35   5093     5.63     15900   16.7
##  4 Arti~ Bovid~ Alce~ busela~ 1.50e5      7.9   10167.    6.5       -999   23.0
##  5 Arti~ Bovid~ Ammo~ clarkei 2.85e4      6.8      NA  -999         -999 -999  
##  6 Arti~ Bovid~ Ammo~ lervia  5.55e4      5.08   3810     4         -999   14.9
##  7 Arti~ Bovid~ Anti~ marsup~ 3.00e4      5.72   3910     4.04      -999   10.2
##  8 Arti~ Bovid~ Anti~ cervic~ 3.75e4      5.5    3846     2.13      -999   20.1
##  9 Arti~ Bovid~ Bison bison   4.98e5      8.93  20000    10.7     157500   29.4
## 10 Arti~ Bovid~ Bison bonasus 5.00e5      9.14  23000.    6.6       -999   30.0
## # ... with 1,430 more rows, and 3 more variables: max_life <dbl>,
## #   litter_size <dbl>, litters_yr <dbl>
```

This shows replacement within the newborn and weaning columns.

```r
life_history %>% 
  naniar::replace_with_na(replace = list(newborn = -999, weaning= -999))
```

```
## # A tibble: 1,440 x 13
##    order family genus species   mass gestation newborn weaning wean_mass    AFR
##    <chr> <chr>  <chr> <chr>    <dbl>     <dbl>   <dbl>   <dbl>     <dbl>  <dbl>
##  1 Arti~ Antil~ Anti~ americ~ 4.54e4      8.13   3246.    3         8900   13.5
##  2 Arti~ Bovid~ Addax nasoma~ 1.82e5      9.39   5480     6.5       -999   27.3
##  3 Arti~ Bovid~ Aepy~ melamp~ 4.15e4      6.35   5093     5.63     15900   16.7
##  4 Arti~ Bovid~ Alce~ busela~ 1.50e5      7.9   10167.    6.5       -999   23.0
##  5 Arti~ Bovid~ Ammo~ clarkei 2.85e4      6.8      NA    NA         -999 -999  
##  6 Arti~ Bovid~ Ammo~ lervia  5.55e4      5.08   3810     4         -999   14.9
##  7 Arti~ Bovid~ Anti~ marsup~ 3.00e4      5.72   3910     4.04      -999   10.2
##  8 Arti~ Bovid~ Anti~ cervic~ 3.75e4      5.5    3846     2.13      -999   20.1
##  9 Arti~ Bovid~ Bison bison   4.98e5      8.93  20000    10.7     157500   29.4
## 10 Arti~ Bovid~ Bison bonasus 5.00e5      9.14  23000.    6.6       -999   30.0
## # ... with 1,430 more rows, and 3 more variables: max_life <dbl>,
## #   litter_size <dbl>, litters_yr <dbl>
```
…
